<?xml version="1.0" encoding="UTF-8"?>
<!-- Created with Inkscape (http://www.inkscape.org/) -->
<svg id="svg6" version="1.1" viewBox="0 0 32 32" xmlns="http://www.w3.org/2000/svg" xmlns:cc="http://creativecommons.org/ns#" xmlns:dc="http://purl.org/dc/elements/1.1/" xmlns:rdf="http://www.w3.org/1999/02/22-rdf-syntax-ns#">
 <metadata id="metadata2">
  <rdf:RDF>
   <cc:Work rdf:about="">
    <dc:format>image/svg+xml</dc:format>
    <dc:type rdf:resource="http://purl.org/dc/dcmitype/StillImage"/>
    <dc:title/>
   </cc:Work>
  </rdf:RDF>
 </metadata>
 <text id="text950" x="-0.47460938" y="29.320312" fill="#00a651" font-family="sans-serif" font-size="40px" letter-spacing="0px" stroke-miterlimit="10" word-spacing="0px" style="font-variant-east_asian:normal;line-height:1.25" xml:space="preserve"><tspan id="tspan948" x="-0.47460938" y="29.320312" fill="#00a651" font-family="'Bitstream Vera Serif'" stroke-miterlimit="10" style="font-variant-east_asian:normal">⟲</tspan></text>
</svg>
